…
| term               |    estimate |   p.value |
| :----------------- | ----------: | --------: |
| (Intercept)        |  3149.05942 | 0.0000000 |
| smoken             |  \-11.16338 | 0.0000000 |
| Race: Black        | \-173.99850 | 0.0193716 |
| Race: Puerto Rican |  \-61.89303 | 0.4381197 |
| Race: White        |   185.21279 | 0.0129217 |

``` r
modelr::add_residuals(child_birth_data, fit)
```

    ## # A tibble: 4,342 x 21
    ##    babysex bhead blength   bwt delwt fincome frace gaweeks malform menarche
    ##    <fct>   <dbl>   <dbl> <dbl> <dbl>   <dbl> <fct>   <dbl> <fct>      <dbl>
    ##  1 famle      34      51  3629   177      35 White    39.9 absent        13
    ##  2 male       34      48  3062   156      65 Black    25.9 absent        14
    ##  3 famle      36      50  3345   148      85 White    39.9 absent        12
    ##  4 male       34      52  3062   157      55 White    40   absent        14
    ##  5 famle      34      52  3374   156       5 White    41.6 absent        13
    ##  6 male       33      52  3374   129      55 White    40.7 absent        12
    ##  7 famle      33      46  2523   126      96 Black    40.3 absent        14
    ##  8 famle      33      49  2778   140       5 White    37.4 absent        12
    ##  9 male       36      52  3515   146      85 White    40.3 absent        11
    ## 10 male       33      50  3459   169      75 Black    40.7 absent        12
    ## # … with 4,332 more rows, and 11 more variables: mheight <dbl>,
    ## #   momage <dbl>, mrace <fct>, parity <dbl>, pnumlbw <dbl>, pnumsga <dbl>,
    ## #   ppbmi <dbl>, ppwt <dbl>, smoken <dbl>, wtgain <dbl>, resid <dbl>

``` r
modelr::add_predictions(child_birth_data, fit)
```

    ## # A tibble: 4,342 x 21
    ##    babysex bhead blength   bwt delwt fincome frace gaweeks malform menarche
    ##    <fct>   <dbl>   <dbl> <dbl> <dbl>   <dbl> <fct>   <dbl> <fct>      <dbl>
    ##  1 famle      34      51  3629   177      35 White    39.9 absent        13
    ##  2 male       34      48  3062   156      65 Black    25.9 absent        14
    ##  3 famle      36      50  3345   148      85 White    39.9 absent        12
    ##  4 male       34      52  3062   157      55 White    40   absent        14
    ##  5 famle      34      52  3374   156       5 White    41.6 absent        13
    ##  6 male       33      52  3374   129      55 White    40.7 absent        12
    ##  7 famle      33      46  2523   126      96 Black    40.3 absent        14
    ##  8 famle      33      49  2778   140       5 White    37.4 absent        12
    ##  9 male       36      52  3515   146      85 White    40.3 absent        11
    ## 10 male       33      50  3459   169      75 Black    40.7 absent        12
    ## # … with 4,332 more rows, and 11 more variables: mheight <dbl>,
    ## #   momage <dbl>, mrace <fct>, parity <dbl>, pnumlbw <dbl>, pnumsga <dbl>,
    ## #   ppbmi <dbl>, ppwt <dbl>, smoken <dbl>, wtgain <dbl>, pred <dbl>
…
